<?xml version="1.0" encoding="UTF-8" standalone="no" ?>
 
<gpx xmlns="http://www.topografix.com/GPX/1/1" creator="bikehike.co.uk" version="1.1" 
    xmlns:xsi="http://www.w3.org/2001/XMLSchema-instance" 
    xsi:schemaLocation="http://www.topografix.com/GPX/1/1 http://www.topografix.com/GPX/1/1/gpx.xsd">


  
   
      <wpt lat="54.316019" lon="-2.830797">
       <ele>20.62</ele>
       <time>2017-11-20T12:08:36Z</time>
      </wpt>
      <wpt lat="54.316019" lon="-2.830797">
       <ele>20.62</ele>
       <time>2017-11-20T12:08:36Z</time>
      </wpt>
      <wpt lat="54.319069" lon="-2.818482">
       <ele>32.86</ele>
       <time>2017-11-20T12:25:46Z</time>
      </wpt>
      <wpt lat="54.347525" lon="-2.799310">
       <ele>100.23</ele>
       <time>2017-11-20T12:40:57Z</time>
      </wpt>
      <wpt lat="54.350789" lon="-2.821836">
       <ele>133.6</ele>
       <time>2017-11-20T12:44:43Z</time>
      </wpt>
      <wpt lat="54.353795" lon="-2.802586">
       <ele>109.02</ele>
       <time>2017-11-20T12:47:57Z</time>
      </wpt>
      <wpt lat="54.353438" lon="-2.795347">
       <ele>107.68</ele>
       <time>2017-11-20T12:49:07Z</time>
      </wpt>
    
</gpx>
